[
  {
    "img": "https://images.tokopedia.net/img/ta/headline-tooltip-compressed-200.png?ect=4g",
    "name": "Alat Fitness Alat Olahraga Treadmill Elektrik Murah Pino Vosgo",
    "price": "Rp 2.500.000",
    "city": "Tangerang"
  },
  {
    "img": "https://images.tokopedia.net/img/cache/200-square/VqbcmM/2022/10/3/a280144f-6ce9-457a-a01b-eefc669ace3c.jpg",
    "name": "Alat Fitness Home Gym Brooklyn Vosgo NEW Termurah",
    "price": "Rp 6.500.000",
    "city": "Bodimax Official"
  },
  {
    "img": "https://images.tokopedia.net/img/cache/200-square/VqbcmM/2022/11/15/c9831e9a-0b59-4d25-94e0-94b23e8c3e5a.jpg",
    "name": "Treadmill Elektrik Vosgo Vienna",
    "price": "Rp 3.880.000",
    "city": "Tangerang Selatan"
  },
  {
    "img": "https://images.tokopedia.net/img/cache/200-square/VqbcmM/2022/11/15/b57219a1-2b8c-46fc-b572-c9f6a86db4dd.jpg",
    "name": "Bodimax Power Core - Alat Sit Up",
    "price": "Rp548.000",
    "city": "BITNASTORE FITNESS"
  },
  {
    "img": "https://images.tokopedia.net/img/cache/200-square/VqbcmM/2022/11/15/71723c43-825e-4614-81eb-8fe8a882766e.png",
    "name": "TREADMILL MANUAL MULTIPUNGSI 04 IN 01 LS-501 ORIGINAL QUALITY",
    "price": "Rp1.850.000",
    "city": "Surabaya"
  },
  {
    "img": "https://images.tokopedia.net/img/cache/200-square/VqbcmM/2022/5/22/9c2b9819-d756-4390-8333-45da62fcb9c4.jpg",
    "name": "Alat bantu olahraga penahan yoga gym rumah Sit up stand holder LX022-1 - Pink Single",
    "price": "Rp37.000",
    "city": "Speeds Official Store"
  },
  {
    "img": "https://images.tokopedia.net/img/cache/200-square/VqbcmM/2022/10/13/20e74f91-5632-4a3d-83fb-d92c4c60bd4a.jpg",
    "name": "BODIMAX RUNNING PAD NINEDOT LIMITED EDITION - Alat treadmill/olahraga",
    "price": "Rp3.880.000",
    "city": "Tangerang"
  },
  {
    "img": "https://images.tokopedia.net/img/cache/200-square/VqbcmM/2022/11/15/65d5767f-9d70-4cf7-8106-6a3103adc592.png",
    "name": "Alat fitness Home gym 1 sisi Alat Gym Multifungsi",
    "price": "Rp6.500.000",
    "city": "Bodimax Official"
  },
  {
    "img": "https://images.tokopedia.net/img/cache/200-square/VqbcmM/2022/11/14/90f7bb5e-012c-4933-8f94-95edbf97fbe7.png",
    "name": "Sit Up Stand Double Holder Alat Bantu Olahraga Penahan Kaki 022-4",
    "price": "Rp61.750",
    "city": "Jakarta Timur"
  },
  {
    "img": "https://images.tokopedia.net/img/cache/200-square/VqbcmM/2022/8/15/4a23a610-a57b-4bd7-b16d-41436f981d1c.jpg",
    "name": "Hand Grip Olahraga Tangan Handgrip adjustable alat olah raga 5 - 50Kg",
    "price": "Rp14.888",
    "city": "Jezfit"
  },
  {
    "img": "https://images.tokopedia.net/img/cache/200-square/product-1/2020/5/7/458544/458544_26a12d12-475a-4de2-9f67-acab5cef501e_800_800",
    "name": "Alat bantu olahraga penahan yoga gym rumah Sit up stand holder LX022-1",
    "price": "Rp37.000",
    "city": "Surabaya"
  },
  {
    "img": "https://images.tokopedia.net/img/cache/200-square/VqbcmM/2022/10/13/20e74f91-5632-4a3d-83fb-d92c4c60bd4a.jpg",
    "name": "Goto Kop Sit Up Stand Alat Bantu Holder Penahan Kaki Fitness Gym",
    "price": "Rp39.900",
    "city": "Speeds Official Store"
  },
  {
    "img": "https://images.tokopedia.net/img/cache/200-square/VqbcmM/2022/9/26/28aa1668-9a7c-42dd-8cd6-98108e3f7d7d.jpg",
    "name": "Handgrip 10-40 kg Alat bantu fitness Otot lengan olahraga LX011-1",
    "price": "Rp7.999",
    "city": "Depok"
  },
  {
    "img": "https://images.tokopedia.net/img/cache/200-square/VqbcmM/2022/8/8/fe6ee6a9-0cc6-48a2-b693-d4a3811d8c2d.jpg",
    "name": "Alat Fitnes Sit Up Stand Holder Helper Bench Penahan Kaki Portable",
    "price": "Rp38.888",
    "city": "lbagstore"
  },
  {
    "img": "https://images.tokopedia.net/img/cache/200-square/product-1/2020/4/22/458544/458544_77c5544f-6ad1-4c15-8fdf-11599bf411c1_617_617",
    "name": "5-60kg Adjustable Handgrip Hand Grip Alat Fitness Olahraga Otot Tangan",
    "price": "Rp14.100",
    "city": "Surabaya"
  },
  {
    "img": "https://images.tokopedia.net/img/cache/200-square/VqbcmM/2021/5/24/98e60669-0b96-4dc9-b8ce-1f1294028a63.jpg",
    "name": "Alat Bantu Olahraga Push up bar Push up handel handle Portable 006",
    "price": "Rp35.000",
    "city": "Speeds Official Store"
  },
  {
    "img": "https://images.tokopedia.net/img/cache/200-square/product-1/2019/11/7/458544/458544_1db4b23e-d53f-4185-9bb2-9dc315c4daee_790_790",
    "name": "Push Up Board Push Up Stand Alat Bantu Push Up Alat Olahraga 069-4",
    "price": "Rp33.250",
    "city": "Jakarta Barat"
  },
  {
    "img": "https://images.tokopedia.net/img/cache/200-square/hDjmkQ/2022/11/14/cc45b5a9-6de2-44f9-a564-47e3ac303fb8.jpg",
    "name": "Alat Fitness Treadmill Elektrik Twen T198 Promo Termurah",
    "price": "Rp1.799.000",
    "city": "Goto Living"
  },
  {
    "img": "https://images.tokopedia.net/img/cache/200-square/VqbcmM/2022/11/17/173e3f22-34a6-42e4-a9bf-b378b6a7e8e1.jpg",
    "name": "Hand Grip 5-20kg Adjustable Alat Fitness Speeds 011-3",
    "price": "Rp34.999",
    "city": "Surabaya"
  },
  {
    "img": "https://images.tokopedia.net/img/cache/200-square/VqbcmM/2022/8/8/eadd2059-6d01-4995-afe2-180a19949300.jpg",
    "name": "Yoga Sit Up stand Fitness Gym Alat Bantu Olahraga Penahan Pegangan",
    "price": "Rp35.000",
    "city": "Speeds Official Store"
  },
  {
    "img": "https://images.tokopedia.net/img/cache/200-square/product-1/2020/9/17/11982699/11982699_b7753ca1-efc6-41a2-9e82-98ef17a45040_800_800",
    "name": "SVARGA Sit Up Stand | Sit Up Assistant | Alat Bantu Sit Up",
    "price": "Rp149.000",
    "city": "Depok"
  },
  {
    "img": "https://images.tokopedia.net/img/cache/200-square/VqbcmM/2021/3/17/66b2111d-6bc9-40a9-b8d1-50c9797be6e5.jpg",
    "name": "Treadmill Manual Multifungsi 5 in 1 Twen MT21 /Alat Fitness / Treadmil",
    "price": "Rp1.025.000",
    "city": "lbagstore"
  },
  {
    "img": "https://images.tokopedia.net/img/cache/200-square/VqbcmM/2022/11/10/66516858-2606-451a-82ab-3aa967ad8025.jpg",
    "name": "Dumbell / Barbel Min/Vinyl cewek Barbel Wanita Cewek Vinyl 012-02",
    "price": "Rp33.250",
    "city": "Jakarta Barat"
  },
  {
    "img": "https://images.tokopedia.net/img/cache/200-square/VqbcmM/2021/5/11/34debb7a-e479-4823-9a7c-a763069df57a.jpg",
    "name": "Push Up Stand Bar Alat Bantu Push Up Olahraga Pegangan Push Up 069-1",
    "price": "Rp125.000",
    "city": "Grosir Kitchenware"
  },
  {
    "img": "https://images.tokopedia.net/img/cache/200-square/VqbcmM/2022/11/3/62b54ff6-ddc2-4eb4-9cdf-8959d9114ccd.jpg",
    "name": "Tali Pull Rope untuk Olahraga/Melatih Otot Tricep Rope Speeds 014-35",
    "price": "Rp95.000",
    "city": "Depok"
  },
  {
    "img": "https://images.tokopedia.net/img/cache/200-square/product-1/2020/7/6/38440256/38440256_edbdc2b1-fa68-47b4-a4ff-b8338232326a_1200_1200",
    "name": "Alat Olahraga otot tangan Handgrip Adjustable 5-60 Kg",
    "price": "Rp11.400",
    "city": "lbagstore"
  },
  {
    "img": "https://images.tokopedia.net/img/cache/200-square/VqbcmM/2022/4/25/e8139e11-451f-4a88-b082-4f1bb7255e14.jpg",
    "name": "SFIDN FITS Sit Up Stand Holder | Alat Bantu Penahan kaki Sit Up",
    "price": "Rp78.000",
    "city": "Surabaya"
  },
  {
    "img": "https://images.tokopedia.net/img/cache/200-square/VqbcmM/2021/2/5/d5ae4e31-0349-40ec-bfc0-c5927afa2bba.jpg",
    "name": "Alat Fitness Treadmill iReborn Paris",
    "price": "Rp6.580.000",
    "city": "Speeds Official Store"
  },
  {
    "img": "https://images.tokopedia.net/img/cache/200-square/VqbcmM/2022/11/16/6c947320-f5c0-402e-82ea-bbbcbd073ddd.jpg",
    "name": "Alat Olahraga Putar Pelangsing Tubuh Waist Twisting Magnetic 041-4",
    "price": "Rp39.999",
    "city": "Kab. Tangerang"
  },
  {
    "img": "https://images.tokopedia.net/img/cache/200-square/VqbcmM/2021/5/12/d5e79a9d-9e91-4d25-8958-e03beae220d7.jpg",
    "name": "Stamina Dumbbell Plastic 1 kg Silver",
    "price": "Rp12.000",
    "city": "TOKINDO ID"
  },
  {
    "img": "https://images.tokopedia.net/img/cache/200-square/VqbcmM/2021/10/14/42cb9b72-1393-46b3-80e6-6a6bebcd7ef2.jpg",
    "name": "Dumbell Neoprene 2KG/PAIR / Barbel (2 x 1KG) KETTLER - ORIGINAL",
    "price": "Rp107.500",
    "city": "Surabaya"
  },
  {
    "img": "https://images.tokopedia.net/img/cache/200-square/VqbcmM/2021/1/8/eb367cdd-714f-46c6-99fe-c75e3f0785fc.jpg",
    "name": "Push Up stand Bar Alat bantu Push Up olahraga Fitness Equipment Speeds",
    "price": "Rp25.000",
    "city": "Speeds Official Store"
  },
  {
    "img": "https://images.tokopedia.net/img/cache/200-square/attachment/2019/11/28/157494691382994/157494691382994_58db28b4-7c4c-416a-99c9-177001ab16d4.png",
    "name": "Hand Grip - Handgrip Adjustable - Alat Latihan Olahraga Otot Tangan",
    "price": "Rp19.900",
    "city": "Kab. Tangerang"
  },
  {
    "img": "https://images.tokopedia.net/img/cache/200-square/VqbcmM/2021/10/20/2c9026e3-d044-48e9-9399-2280508a68cd.jpg",
    "name": "ALAT OLAHRAGA OTOT TANGAN HAND GRIP ADJUSTABLE 5 - 50 KG",
    "price": "Rp19.400",
    "city": "pneumatic store"
  },
  {
    "img": "https://images.tokopedia.net/img/cache/200-square/VqbcmM/2022/7/28/0afcbc53-0306-49cf-aec1-c4e1c019b3d4.jpg",
    "name": "Papan alat bantu Push Up Rack Board Fitness Workout Gym",
    "price": "Rp88.888",
    "city": "Tangerang Selatan"
  },
  {
    "img": "https://images.tokopedia.net/img/cache/200-square/VqbcmM/2021/7/10/c29c0a4c-a47f-4f69-ae80-85038559e8fb.jpg",
    "name": "Alat Fitness Treadmill IReborn I-Verona",
    "price": "Rp3.525.000",
    "city": "SVARGA YOGA"
  },
  {
    "img": "https://images.tokopedia.net/img/cache/200-square/VqbcmM/2022/9/28/7c12e107-b7b4-48c0-9268-8fe14b6f10a7.jpg",
    "name": "POTENCE SIT UP BAR STAND / ALAT BANTU SIT UP",
    "price": "Rp105.000",
    "city": "Kab. Tangerang"
  },
  {
    "img": "https://images.tokopedia.net/img/cache/200-square/VqbcmM/2021/6/14/dcf00ce2-e1ff-4243-9ced-7e96fb632d31.jpg",
    "name": "SIT UP STAND ALAT BANTU TUMPUAN SIT UPS SITUP LANTAI GYM OLAHRAGA OTOT",
    "price": "Rp40.000",
    "city": "TOKINDO ID"
  },
  {
    "img": "https://images.tokopedia.net/img/cache/200-square/product-1/2020/4/24/21745919/21745919_47de4c26-80ce-448e-b8e1-ad1a988f3030_700_700",
    "name": "HIT POWER SQUAT ORIGINAL Lejel seperti Excider ALAT OLAHRAGA FITNES",
    "price": "Rp1.150.000",
    "city": "Surabaya"
  },
  {
    "img": "https://images.tokopedia.net/img/cache/200-square/VqbcmM/2022/3/4/6a75cf08-8dba-4828-9264-2d1b50c7f2c7.jpg",
    "name": "Skipping Skiping Lompat Tali Loncat Jump Rope Alat Olahraga Anak Remaj",
    "price": "Rp12.500",
    "city": "Speeds Official Store"
  },
  {
    "img": "https://images.tokopedia.net/img/cache/200-square/VqbcmM/2021/4/12/fefa39d7-8783-409c-9179-7d345ab1753d.jpg",
    "name": "HAPPYFIT [2 PCS] Neoprene Non Slip Dumbbell 1 KG - Dumbel Barbel",
    "price": "Rp135.000",
    "city": "Surabaya"
  },
  {
    "img": "https://images.tokopedia.net/img/cache/200-square/VqbcmM/2022/9/26/7d047feb-25a9-4368-87b3-07945397dc8d.png",
    "name": "Skipping Skiping Lompat Tali Skipping Alat Olahraga Anak Dewasa",
    "price": "Rp14.000",
    "city": "Speeds Official Store"
  },
  {
    "img": "https://images.tokopedia.net/img/cache/200-square/VqbcmM/2021/4/6/50e7abad-773d-4bf1-a781-f296d16a7420.jpg",
    "name": "Short Resistance Band | Diameter 60cm | 100% Premium Latex",
    "price": "Rp23.000",
    "city": "Surabaya"
  },
  {
    "img": "https://images.tokopedia.net/img/cache/200-square/VqbcmM/2021/8/25/7653e75e-848e-4c33-b956-e6909528fbf5.jpg",
    "name": "JUMBO Super Magnetic Trimmer / Jogging Body Plate Alat Olahraga Joging",
    "price": "Rp65.000",
    "city": "Speeds Official Store"
  },
  {
    "img": "https://images.tokopedia.net/img/cache/200-square/product-1/2017/7/17/195488254/195488254_a920e5ec-a584-4e55-a789-a28cf44b3316_638_581.jpg",
    "name": "SFIDN FITS Foam Roller Yoga Massage | Foam Roller Yoga Pilates Gym",
    "price": "Rp268.000",
    "city": "Jakarta Pusat"
  },
  {
    "img": "https://images.tokopedia.net/img/cache/200-square/VqbcmM/2022/5/6/8e0fa104-be1b-47b9-89fe-54135a21cc25.jpg",
    "name": "Sit Up Stand Holder Penahan Pegangan Kaki Fitness Yoga Gym Rumah 022-1",
    "price": "Rp38.888",
    "city": "Irmanshop02"
  },
  {
    "img": "https://images.tokopedia.net/img/cache/200-square/product-1/2019/10/26/458544/458544_c3299a1b-3f80-4ed8-9dd2-6dc4012809d3_700_700",
    "name": "HAPPYFIT Sit Up Bar - Alat Bantu Sit Up",
    "price": "Rp145.000",
    "city": "Dilayani Tokopedia"
  },
  {
    "img": "https://images.tokopedia.net/img/cache/200-square/VqbcmM/2022/9/26/ae8ef1e7-4acd-455d-9e76-42d60b874913.png",
    "name": "Alat Fitness Treadmill Elektrik iReborn Venio",
    "price": "Rp2.690.000",
    "city": "SFIDN FITS"
  },
  {
    "img": "https://images.tokopedia.net/img/cache/200-square/VqbcmM/2022/9/28/34a0c5bc-60a7-475a-9c9b-87557a5eba88.jpg",
    "name": "Triumph Dumbell set 20KG Barbel set Dumbel alat olahraga rumahan",
    "price": "Rp249.000",
    "city": "Jakarta Utara"
  },
  {
    "img": "https://images.tokopedia.net/img/cache/200-square/VqbcmM/2022/6/16/1c0256c2-3cef-4b77-8b8f-2f7dc543a187.jpg",
    "name": "SFIDN FITS Wrist Support Band Hook Gym Glove",
    "price": "Rp148.000",
    "city": "iReborn"
  },
  {
    "img": "https://images.tokopedia.net/img/cache/200-square/VqbcmM/2022/5/9/42fd82a5-64b0-4c30-850e-3646d050604a.jpg",
    "name": "Jogging Trimmer / Magnetic Trimmer Body Plate / Alat Olahraga",
    "price": "Rp37.000",
    "city": "Surabaya"
  },
  {
    "img": "https://images.tokopedia.net/img/cache/200-square/VqbcmM/2022/7/15/f0ea8228-a5f2-4f5c-81ec-c559afe4bb96.jpg",
    "name": "Foam Hand grip, Alat Fitness Untuk memperkuat Tangan speeds 011-5",
    "price": "Rp7.999",
    "city": "Speeds Official Store"
  },
  {
    "img": "https://images.tokopedia.net/img/cache/200-square/hDjmkQ/2022/7/26/8d4b9993-26f8-4080-8335-7503a941078f.jpg",
    "name": "Situp Sit Up Alat Bantu Olahraga Home Fitness Tummy Trimmer Gym Rumah",
    "price": "Rp33.000",
    "city": "Jakarta Utara"
  },
  {
    "img": "https://images.tokopedia.net/img/cache/200-square/VqbcmM/2021/9/23/eaf4a815-31dd-4e27-9146-86edf48c8551.jpg",
    "name": "Barbel Dumbel Plastik Hercules 5kg",
    "price": "Rp45.000",
    "city": "Stamina Infinite"
  },
  {
    "img": "https://images.tokopedia.net/img/cache/200-square/hDjmkQ/2022/2/4/1caf2d25-a83b-404b-8f1e-9e94c70c84e2.jpg",
    "name": "Dumbell Neoprene 4KG/PAIR / Barbel (2 x 2KG) KETTLER - ORIGINAL",
    "price": "Rp206.500",
    "city": "Jakarta Utara"
  },
  {
    "img": "https://images.tokopedia.net/img/cache/200-square/VqbcmM/2022/10/11/cc9ecd1f-181f-4538-b39f-05bf0c0bfb45.jpg",
    "name": "Alat Olahraga mini Sit Up Asisten Push Up Alat Pengecil Perut Portable",
    "price": "Rp100.000",
    "city": "DNA Sport & Music"
  },
  {
    "img": "https://images.tokopedia.net/img/cache/200-square/VqbcmM/2022/3/12/d4836962-b589-46f0-a102-f3a9cf8418d1.png",
    "name": "REVOFLEX Xtreme Alat Olahraga Gym Fitnes Kurus Praktis",
    "price": "Rp69.900",
    "city": "Jakarta Barat"
  },
  {
    "img": "https://images.tokopedia.net/img/cache/200-square/VqbcmM/2022/10/11/ed2e21d9-7498-409a-88d7-8de21531de0f.jpg",
    "name": "Set Tali Olahraga Pintu Serbaguna/ 11 set alat Fitness dan Gym Dirumah",
    "price": "Rp60.000",
    "city": "Hebohstore"
  },
  {
    "img": "https://images.tokopedia.net/img/cache/200-square/VqbcmM/2020/11/30/39332427-f69f-4738-b3be-2b5be433eff9.jpg",
    "name": "Svarga Adjustable Weighted Vest - Wrist & Ankle Weight - Rompi Beban",
    "price": "Rp65.000",
    "city": "Jakarta Barat"
  },
  {
    "img": "https://images.tokopedia.net/img/cache/200-square/VqbcmM/2021/12/3/7861291d-dead-4382-ad67-f186d54cf484.jpg",
    "name": "ALAT BANTU SIT UP PENAHAN KAKI SIT UP ALAT OLAHRAGA BENCH HELPER FITNE",
    "price": "Rp39.999",
    "city": "Halifo Shop"
  },
  {
    "img": "https://images.tokopedia.net/img/cache/200-square/product-1/2020/6/24/10847209/10847209_9f6f1813-230a-4804-9edf-07e0e6b939db_600_600",
    "name": "Svarga Barbell Pad - Squat Pad - Foam Pelindung Pundak & Leher",
    "price": "Rp145.000",
    "city": "Jakarta Utara"
  },
  {
    "img": "https://images.tokopedia.net/img/cache/200-square/VqbcmM/2021/10/28/69952209-d306-4cb9-8d5a-160185a7250c.jpg",
    "name": "REVOFLEX Xtreme | Alat Olahraga Ringkas | Alat Gym",
    "price": "Rp61.600",
    "city": "Bro & Sis Jakarta"
  },
  {
    "img": "https://images.tokopedia.net/img/cache/200-square/product-1/2016/2/28/7662865/7662865_ea54b6a9-9eaf-49ac-9537-411aeed6ded2.jpg",
    "name": "Jogging Magnetic Trimmer Body Plate Alat Olahraga / Pembakar Lemak",
    "price": "Rp31.150",
    "city": "Depok"
  },
  {
    "img": "https://images.tokopedia.net/img/cache/200-square/VqbcmM/2022/8/13/a8d943c2-e0a2-40ff-b215-51be014ec030.jpg",
    "name": "Handgrip 10-40 kg Alat bantu fitness Otot lengan olahraga LX011-2",
    "price": "Rp7.999",
    "city": "lbagstore"
  },
  {
    "img": "https://images.tokopedia.net/img/cache/200-square/VqbcmM/2022/8/10/e5884f9e-eae3-425f-84b8-8373ba9e161a.jpg",
    "name": "AB WHEEL ALAT PUSH UP WHEEL RODA FITNESS Sit up Bar 009-1",
    "price": "Rp76.000",
    "city": "Jakarta Utara"
  },
  {
    "img": "https://images.tokopedia.net/img/cache/200-square/VqbcmM/2022/2/21/67966034-b783-4224-b703-623ca9a92533.jpg",
    "name": "PAKET ALAT OLAHRAGA PRIA MATRAS DENGAN HANDLE PUSH UP DAN MINI SIT UP",
    "price": "Rp121.400",
    "city": "iReborn"
  },
  {
    "img": "https://images.tokopedia.net/img/cache/200-square/VqbcmM/2022/7/12/2f816068-1dd9-48fb-a31b-9d701c1064f0.png",
    "name": "ALAT OLAHRAGA HANDLE PUSH UP BAR PEGANGAN PUSH UP",
    "price": "Rp39.500",
    "city": "Jakarta Barat"
  },
  {
    "img": "https://images.tokopedia.net/img/cache/200-square/product-1/2018/5/3/3035472/3035472_7018ffc8-5bfb-4d38-9e87-5c3623e4f926_720_718.jpg",
    "name": "HAPPYFIT [2 PCS] Neoprene Non Slip Dumbbell 2 KG - Dumbel Barbel",
    "price": "Rp209.000",
    "city": "Potence Indonesia"
  },
  {
    "img": "https://images.tokopedia.net/img/cache/200-square/product-1/2019/12/24/batch-upload/batch-upload_4da3d703-2dce-4046-9e5d-ca0eef06dd55.jpg",
    "name": "DUMBELL SET EXAGONAL LIFE SPORTS 2.5 - 20KG + RACK COMERCIAL IMPORT",
    "price": "Rp12.990.000",
    "city": "Tangerang"
  },
  {
    "img": "https://images.tokopedia.net/img/cache/200-square/VqbcmM/2022/5/30/bb5478ec-261a-4584-b5e3-c6945f058ecd.jpg",
    "name": "HIT Rowing King - Rowing Machine/Mesin Olahraga Dayung - Alat Fitness - Hanya Rowing",
    "price": "Rp799.000",
    "city": "TGR Aksesoris"
  },
  {
    "img": "https://images.tokopedia.net/img/cache/200-square/VqbcmM/2021/6/24/d5b81037-883c-4dad-80a4-234ea4e92a64.jpg",
    "name": "BODIMAX HOME SQUAT X POWER CORE (Bundling) - Alat Olahraga",
    "price": "Rp1.497.000",
    "city": "Bekasi"
  },
  {
    "img": "https://images.tokopedia.net/img/cache/200-square/VqbcmM/2022/11/17/6116902b-b50c-449c-98ca-8b5abeef5902.jpg",
    "name": "4 in 1 Alat Olahraga Fitness Gym Abdominal Latihan Perut Ab Coaster",
    "price": "Rp950.000",
    "city": "Raibycom"
  },
  {
    "img": "https://images.tokopedia.net/img/cache/200-square/VqbcmM/2022/3/17/ec288e50-29d3-4b18-98cd-8b6b1a0f4f50.jpg",
    "name": "Bodimax Home Squat - Alat Olahraga",
    "price": "Rp999.000",
    "city": "Jakarta Barat"
  },
  {
    "img": "https://images.tokopedia.net/img/cache/200-square/VqbcmM/2022/11/15/7fdfb26f-00b4-4cf8-bf24-2ba0ef8d13e1.png",
    "name": "Bodimax Home Squat - Alat Olahraga",
    "price": "Rp999.000",
    "city": "Tangerang"
  },
  {
    "img": "https://images.tokopedia.net/img/cache/200-square/VqbcmM/2021/12/11/b2fa2f37-9847-4c3c-80f0-25b2ac46252a.jpg",
    "name": "Triumph Dumbell set 30KG Barbel set Dumbel alat olahraga rumahan",
    "price": "Rp399.900",
    "city": "Bodimax Official"
  },
  {
    "img": "https://images.tokopedia.net/img/cache/200-square/VqbcmM/2022/11/15/b6ef2b88-1068-4ba3-9b69-8711a32d08e3.png",
    "name": "BODIMAX RUNNING PAD / Electric Treadmill",
    "price": "Rp3.680.000",
    "city": "Surabaya"
  },
  {
    "img": "https://images.tokopedia.net/img/cache/200-square/VqbcmM/2022/8/1/a860e301-1a3b-4e23-b9e0-734fdd207ee1.jpg",
    "name": "SPEEDS Handgrip 5-60kg 5in1 Olahraga Tangan Alat Latih Tangan 011-6",
    "price": "Rp76.000",
    "city": "Triumph International"
  },
  {
    "img": "https://images.tokopedia.net/img/cache/200-square/VqbcmM/2021/8/20/8a878acb-611a-40d6-bc02-5bf8f498ac71.jpg",
    "name": "Ez Body Slimmer – Alat Olahraga Penghancur Lemak",
    "price": "Rp899.000",
    "city": "Tangerang"
  },
  {
    "img": "https://images.tokopedia.net/img/cache/200-square/VqbcmM/2022/11/7/a9288765-ceca-4998-ac4a-30efb849d1f6.jpg",
    "name": "Alat Fitness Treadmill iReborn Venice M8",
    "price": "Rp3.375.000",
    "city": "Bodimax Official"
  },
  {
    "img": "https://images.tokopedia.net/img/cache/200-square/product-1/2015/12/22/3697155/3697155_4303daec-5b9e-4643-add3-1e4e7fc61ba4.jpg",
    "name": "REVOFLEX Xtreme | Alat Olahraga Ringkas | Alat Gym",
    "price": "Rp61.600",
    "city": "Surabaya"
  },
  {
    "img": "https://images.tokopedia.net/img/cache/200-square/product-1/2020/4/18/38440256/38440256_813fc345-679b-4902-ad9a-79a0978cd080_1280_1280",
    "name": "Spring Chest Pull / Alat Fitness Portable Gym Fitness 024-3",
    "price": "Rp49.875",
    "city": "Speeds Official Store"
  },
  {
    "img": "https://images.tokopedia.net/img/cache/200-square/VqbcmM/2022/10/27/1d14c5ec-6d7f-4ecc-8839-15cf2e51a9e1.png",
    "name": "B&G DUMBELL PVC 20KG / ALAT ANGKAT BEBAN / BARBEL SET / ALAT OLAHRAGA",
    "price": "Rp250.000",
    "city": "Jakarta Selatan"
  },
  {
    "img": "https://images.tokopedia.net/img/cache/200-square/VqbcmM/2022/11/14/c6d2112c-ee80-4057-a69b-43c5c495c396.jpg",
    "name": "Dumbell Barbel Vinyl Barbel Cewek Yoga Mat Gym Neoprene 012-3",
    "price": "Rp66.500",
    "city": "HITSHOP INDONESIA"
  },
  {
    "img": "https://images.tokopedia.net/img/cache/200-square/VqbcmM/2022/10/3/1026ad3e-5bbc-422c-bb21-6fc867e606e0.jpg",
    "name": "handgrip hand grip alat fitnes frasser busa 789",
    "price": "Rp7.200",
    "city": "Jakarta Utara"
  },
  {
    "img": "https://images.tokopedia.net/img/cache/200-square/VqbcmM/2021/7/12/e0c40179-ca72-4098-ad35-76f3f538a026.jpg",
    "name": "HAND GRIP ALAT OLAHRAGA UNTUK LATIHAN OTOT TANGAN JARI",
    "price": "Rp14.500",
    "city": "iReborn"
  },
  {
    "img": "https://images.tokopedia.net/img/cache/200-square/VqbcmM/2022/1/17/33d3b21c-7bcd-425b-ad59-9ae799dbcac7.png",
    "name": "PAKET HEMAT ALAT OLAHRAGA MINI SIT UP DENGAN MATRAS DAN TALI SKIPPING",
    "price": "Rp89.000",
    "city": "Jakarta Pusat"
  },
  {
    "img": "https://images.tokopedia.net/img/cache/200-square/VqbcmM/2021/6/15/3495b3f4-72cf-4c12-a84a-d6259e17c987.jpg",
    "name": "5-60kg Adjustable Handgrip Hand Grip Alat Fitness Olahraga Otot Tangan",
    "price": "Rp14.100",
    "city": "Serba Trend"
  },
  {
    "img": "https://images.tokopedia.net/img/cache/200-square/VqbcmM/2022/10/10/4714c36c-0125-463b-887c-2b608760559e.png",
    "name": "HAPPYFIT Thigh Master - Leg Abs Chest Trainer - Alat Fitness Otot Paha",
    "price": "Rp85.000",
    "city": "Surabaya"
  },
  {
    "img": "https://images.tokopedia.net/img/cache/200-square/VqbcmM/2021/3/19/993e2516-043c-482d-a7c5-a8633790874c.png",
    "name": "Mini Sit Up Alat Bantu Sit Up Alat Olahraga Alat Pengecil Perut Fitnes",
    "price": "Rp100.000",
    "city": "Speeds Official Store"
  },
  {
    "img": "https://images.tokopedia.net/img/cache/200-square/VqbcmM/2021/6/7/8e409421-b75c-43ca-9d04-e98b9847bb8d.jpg",
    "name": "SFIDN FITS Powerbelt Belt Fitness Gym | Weight lifting belt",
    "price": "Rp168.000",
    "city": "Tangerang"
  },
  {
    "img": "https://images.tokopedia.net/img/cache/200-square/VqbcmM/2022/8/3/8d128779-efba-4c5b-bd73-96aa247d72f4.png",
    "name": "ALAT OLAHRAGA HANDLE PUSH UP BAR STAND PORTABLE BENTUK S TAFF",
    "price": "Rp45.000",
    "city": "BGSPORT"
  },
  {
    "img": "https://images.tokopedia.net/img/cache/200-square/VqbcmM/2022/7/18/880c0404-99c0-4b11-af2d-0194ca344ad2.jpg",
    "name": "SFIDN FITS Premium Sit Up Stand Holder Alat bantu penahan kaki Sit Up",
    "price": "Rp148.000",
    "city": "Surabaya"
  },
  {
    "img": "https://images.tokopedia.net/img/cache/200-square/VqbcmM/2021/12/2/e6e45b70-df6c-41c4-a007-ac7785531191.jpg",
    "name": "Ironfit Sit Up Stand | Sit Up Assistant | Alat Bantu Sit Up - Hitam",
    "price": "Rp58.000",
    "city": "Speeds Official Store"
  },
  {
    "img": "https://images.tokopedia.net/img/cache/200-square/VqbcmM/2020/8/26/6f29dc6a-d260-471d-bcd1-fc8630635afc.jpg",
    "name": "ALAT SIT UP STAND / ALAT BANTU GYM SIT UP PERUT OLAHRAGA OTOT",
    "price": "Rp33.500",
    "city": "Surabaya"
  },
  {
    "img": "https://images.tokopedia.net/img/cache/200-square/VqbcmM/2022/1/4/bc7f5ee5-be1a-4bfc-bb46-8a1b0626706a.jpg",
    "name": "Svarga Adjustable Barbell 6 in 1 - Dumbbell - Kettlebell - Barbel 20kg",
    "price": "Rp690.000",
    "city": "Pusat Grosir OLAHRAGA"
  },
  {
    "img": "https://images.tokopedia.net/img/cache/200-square/VqbcmM/2022/6/30/6f804c1e-3e71-475f-8be1-a2aed2852dac.jpg",
    "name": "Svarga Neoprene Dumbbell - 1KG - Dumbell Barbel Barbell",
    "price": "Rp95.000",
    "city": "Jakarta Barat"
  },
  {
    "img": "https://images.tokopedia.net/img/cache/200-square/VqbcmM/2022/11/16/804109d4-7f2a-4f29-9e5c-66eab1527ca7.jpg",
    "name": "Alat Fitness Treadmill Elektrik Multifunction Murah Twen T600M Black",
    "price": "Rp5.599.000",
    "city": "franky interlining"
  },
  {
    "img": "https://images.tokopedia.net/img/cache/200-square/VqbcmM/2021/1/8/4ddd11af-d91f-4497-8f59-5d2ee4d16d6c.jpg",
    "name": "Dumbell Neoprene 6KG/PAIR / Barbel (2 x 3KG) KETTLER - ORIGINAL",
    "price": "Rp305.000",
    "city": "Kab. Bekasi"
  },
  {
    "img": "https://images.tokopedia.net/img/cache/200-square/VqbcmM/2021/3/23/1bb42928-24a7-4721-81c5-52affd1d78a8.jpg",
    "name": "Kettler Neoprene Dumbell (2kg/pair) Pink 701-000 002002056",
    "price": "Rp119.500",
    "city": "Antares Star"
  },
  {
    "img": "https://images.tokopedia.net/img/cache/200-square/VqbcmM/2022/11/16/e421a7ed-3d58-43bd-9c1a-482096071ef4.jpg",
    "name": "Alat Fitness Elliptical iReborn IR-802i Orbitrac",
    "price": "Rp2.980.000",
    "city": "Semarang"
  },
  {
    "img": "https://images.tokopedia.net/img/cache/200-square/product-1/2019/12/24/batch-upload/batch-upload_2711c1d6-8464-47df-9cc1-82fc5eaa2b1e.jpg",
    "name": "HAPPYFIT [2 PCS] Neoprene Non Slip Dumbbell with Handle 1 KG",
    "price": "Rp125.900",
    "city": "Grosir Supermart"
  },
  {
    "img": "https://images.tokopedia.net/img/cache/200-square/VqbcmM/2021/11/17/e56d93f7-75f4-4f2b-af5f-e94899ce7f0d.jpg",
    "name": "AONEZ Alat Olahraga Sit Up Assisten Alat Pengecil Perut Portabel,Hitam",
    "price": "Rp59.000",
    "city": "Kab. Tangerang"
  },
  {
    "img": "https://images.tokopedia.net/img/cache/200-square/VqbcmM/2022/8/1/a860e301-1a3b-4e23-b9e0-734fdd207ee1.jpg",
    "name": "SPEEDS Handgrip 5-60kg 5in1 Olahraga Tangan Alat Latih Tangan 011-6",
    "price": "Rp76.000",
    "city": "happyfit.id"
  },
  {
    "img": "https://images.tokopedia.net/img/cache/200-square/VqbcmM/2021/3/4/d263d85d-b1e9-414f-8e84-514d4d2a1346.jpg",
    "name": "Premium Push Up bar / Pushup Handle Portable / Alat bantu olahraga",
    "price": "Rp45.000",
    "city": "Kab. Bekasi"
  },
  {
    "img": "https://images.tokopedia.net/img/cache/200-square/VqbcmM/2021/3/25/41d6ba14-1284-42e2-ad53-82d46b500d7f.jpg",
    "name": "Handgrip tangan alat olahraga fitness otot tangan jari hand grip",
    "price": "Rp6.786",
    "city": "Antares Star"
  },
  {
    "img": "https://images.tokopedia.net/img/cache/200-square/product-1/2019/10/26/458544/458544_c3299a1b-3f80-4ed8-9dd2-6dc4012809d3_700_700",
    "name": "Sip Up Stand Holder Penahan Pegangan Kaki Fitness Yoga Gym Rumah 022-1",
    "price": "Rp40.000",
    "city": "Tangerang Selatan"
  },
  {
    "img": "https://images.tokopedia.net/img/cache/200-square/VqbcmM/2021/5/12/aee8c3f5-31ca-4d93-a624-c075043041ed.jpg",
    "name": "Dumbell Barbel Vinyl cewek fitness012-2 harga 2pc",
    "price": "Rp66.500",
    "city": "SFIDN FITS"
  },
  {
    "img": "https://images.tokopedia.net/img/cache/200-square/VqbcmM/2021/6/22/85f60dcb-0408-4727-8f93-413807f8f58f.jpg",
    "name": "Hand grip Handgrip Alat Olahraga Latihan Fitness Gym Jari Tangan",
    "price": "Rp79.500",
    "city": "Jakarta Pusat"
  },
  {
    "img": "https://images.tokopedia.net/img/cache/200-square/VqbcmM/2021/9/8/42539ad2-9972-4020-872b-04131724d81c.jpg",
    "name": "Skipping Rope Alat Olahraga Tali Fitness Aksesories Counter Hitung Gym",
    "price": "Rp6.500",
    "city": "sportisasi"
  },
  {
    "img": "https://images.tokopedia.net/img/cache/200-square/product-1/2019/10/29/5493320/5493320_e6ee1f72-1c38-4116-a838-c0da0688c995_700_700",
    "name": "Expander Tube Firm Tension KETTLER - ORIGINAL",
    "price": "Rp112.500",
    "city": "Tangerang Selatan"
  },
  {
    "img": "https://images.tokopedia.net/img/cache/200-square/VqbcmM/2022/11/16/2ef358f9-f084-4698-9588-0bee20869915.jpg",
    "name": "Alat Fitness Smart Treadmill Elektrik iReborn Zenius",
    "price": "Rp6.125.000",
    "city": "SFIDN FITS"
  },
  {
    "img": "https://images.tokopedia.net/img/cache/200-square/VqbcmM/2022/1/14/988cfd0f-d638-411c-92ef-58c9f85e9970.jpg",
    "name": "Premium Yoga Wheel Svarga | 33cm ABS Wheel",
    "price": "Rp540.000",
    "city": "Jakarta Barat"
  },
  {
    "img": "https://images.tokopedia.net/img/cache/200-square/VqbcmM/2021/1/6/50d1ce94-d66c-4130-933b-c99e71bb9af5.jpg",
    "name": "Push up bar handle alat bantu olahraga portable power gym pull sit set",
    "price": "Rp29.900",
    "city": "Ironfit Store"
  },
  {
    "img": "https://images.tokopedia.net/img/cache/200-square/VqbcmM/2022/7/4/1497ab49-075f-47d6-9d6b-4d1599493710.jpg",
    "name": "Svarga Adjustable Dumbbell - 5 KG - Dumbell Barbel Barbell",
    "price": "Rp299.000",
    "city": "Kab. Tangerang"
  },
  {
    "img": "https://images.tokopedia.net/img/cache/200-square/VqbcmM/2022/9/26/e9c13428-f7bc-48b3-bd9a-46a95837f282.png",
    "name": "HAPPYFIT [2 PCS] Neoprene Non Slip Dumbbell 3 KG - Dumbel Barbel",
    "price": "Rp299.000",
    "city": "EzzyMart JAKARTA"
  },
  {
    "img": "https://images.tokopedia.net/img/cache/200-square/VqbcmM/2021/12/21/e7cdb5a6-120e-46d9-a75d-58f0dbcd7c35.jpg",
    "name": "NEW! Sit Up Stand Double Holder Alat Bantu Olahraga Penahan Kaki 022-4",
    "price": "Rp54.000",
    "city": "Tangerang Selatan"
  },
  {
    "img": "https://images.tokopedia.net/img/cache/200-square/product-1/2020/6/7/57413378/57413378_c28b250a-01d0-4433-b76c-dedb349b17dc_700_700",
    "name": "Alat Sit Up Portable dan Olahraga Lain Pengecil Perut",
    "price": "Rp50.000",
    "city": "SVARGA YOGA"
  },
  {
    "img": "https://images.tokopedia.net/img/cache/200-square/VqbcmM/2021/6/9/7fbe15b5-3c0d-4011-a20e-bee04182ffcb.jpg",
    "name": "Barbel / Dumbell Set Cast Iron 10KG (w/ Hardcase) KETTLER - ORIGINAL",
    "price": "Rp512.500",
    "city": "Tangerang Selatan"
  },
  {
    "img": "https://images.tokopedia.net/img/cache/200-square/VqbcmM/2020/12/30/b8e8521a-e0f3-4195-89c5-10ec3d123b19.jpg",
    "name": "Yunmai A601 Portable Push-up Training Board - Alat Push Up",
    "price": "Rp215.000",
    "city": "SVARGA YOGA"
  },
  {
    "img": "https://images.tokopedia.net/img/cache/200-square/VqbcmM/2022/11/1/c9d7e16a-1714-444c-adbf-4bda34426039.jpg",
    "name": "Alat Fitness Treadmill Elektrik iReborn Siena",
    "price": "Rp3.480.000",
    "city": "Kab. Tangerang"
  },
  {
    "img": "https://images.tokopedia.net/img/cache/200-square/VqbcmM/2022/11/15/65d5767f-9d70-4cf7-8106-6a3103adc592.png",
    "name": "BODIMAX RUNNING PAD NINEDOT LIMITED EDITION - Alat treadmill/olahraga",
    "price": "Rp3.880.000",
    "city": "TOKINDO ID"
  },
  {
    "img": "https://images.tokopedia.net/img/cache/200-square/VqbcmM/2022/3/30/bb0fb119-5422-46d4-be07-35b180f34180.jpg",
    "name": "handgrip hand grip alat fitnes frasser counter",
    "price": "Rp16.500",
    "city": "Dilayani Tokopedia"
  },
  {
    "img": "https://images.tokopedia.net/img/cache/200-square/VqbcmM/2022/9/28/32afa22d-4eeb-4425-9959-354e55f4ae8d.jpg",
    "name": "Alat Fitness iReborn Carlo Magnetic Bike",
    "price": "Rp3.150.000",
    "city": "DNA Sport & Music"
  },
  {
    "img": "https://images.tokopedia.net/img/cache/200-square/VqbcmM/2022/10/17/a9d7417a-bb17-42b9-b262-bd6644d2470a.png",
    "name": "dumbell KETTLER NEOPRENE 2KG/PAIR",
    "price": "Rp107.550",
    "city": "Jakarta Utara"
  },
  {
    "img": "https://images.tokopedia.net/img/cache/200-square/product-1/2020/7/22/314272/314272_44b2cd4a-8a3e-4a6a-b317-e65ae24a95de_700_700",
    "name": "Jogging Trimmer Magnetic Body Plate Alat Olahraga Twister Gym",
    "price": "Rp21.500",
    "city": "MG Sports & Music"
  },
  {
    "img": "https://images.tokopedia.net/img/cache/200-square/VqbcmM/2022/5/23/2707bd4e-f92c-416f-8a67-0f88784e7843.jpg",
    "name": "Lompat Tali Skipping Jumping Rope Alat Olahraga Gym Fitness 021-1609",
    "price": "Rp45.000",
    "city": "Jakarta Utara"
  },
  {
    "img": "https://images.tokopedia.net/img/cache/200-square/product-1/2019/12/26/24692000/24692000_13cf232c-ebde-4f38-a523-cae56d4c336e_800_800",
    "name": "Techdoo Alat Fitness Sit Up Penahan kaki Sit Up Gym Fitness OPK01",
    "price": "Rp35.000",
    "city": "iReborn"
  },
  {
    "img": "https://images.tokopedia.net/img/cache/200-square/VqbcmM/2022/11/1/37e91df9-3418-4047-8530-6fed5d3e44d2.jpg",
    "name": "Alat Fitness Treadmill Elektrik iReborn Moscow M1",
    "price": "Rp6.100.000",
    "city": "Kab. Tangerang"
  },
  {
    "img": "https://images.tokopedia.net/img/cache/200-square/VqbcmM/2022/10/6/6539b3b4-c497-4513-bd28-49b45694c74d.jpg",
    "name": "Hand Grip Power Strength Alat gym fitness training olahraga waist set",
    "price": "Rp18.424",
    "city": "happyfit.id"
  },
  {
    "img": "https://images.tokopedia.net/img/cache/200-square/VqbcmM/2022/9/20/a224cf6d-35c0-4343-8727-473d82f83777.jpg",
    "name": "eBuy Dumbell set 20KG Barbel set Dumbel Dumbell alat olahraga rumahan",
    "price": "Rp239.000",
    "city": "Kab. Bekasi"
  },
  {
    "img": "https://images.tokopedia.net/img/cache/200-square/VqbcmM/2021/5/11/2a3ae2fc-d202-40b2-8eb4-630f573654f2.jpg",
    "name": "Dumbbell Set Max 50KG Barbel Set Dumbel Dumble Alat Fitness Gym 014-39",
    "price": "Rp1.700.000",
    "city": "AONEZ Official Store"
  },
  {
    "img": "https://images.tokopedia.net/img/cache/200-square/product-1/2020/10/28/95816751/95816751_5b940202-f4ba-4d54-8fca-a8219639a3fa_1080_1080",
    "name": "Alat olahraga/Alat fitness Tummy Trimer",
    "price": "Rp37.000",
    "city": "Surabaya"
  },
  {
    "img": "https://images.tokopedia.net/img/cache/200-square/VqbcmM/2020/10/31/69c8a1ae-9722-4e5a-8c4c-5af4e5d5d54a.jpg",
    "name": "Hand Grip 902 KETTLER Alat Olahraga Remas Tangan Squeeze",
    "price": "Rp45.000",
    "city": "Speeds Official Store"
  },
  {
    "img": "https://images.tokopedia.net/img/cache/200-square/product-1/2018/3/22/18846147/18846147_eb4e5bf1-5248-4979-88e5-1ddadd8740a8_1000_1000.jpg",
    "name": "Kettler Neoprene Dumbell (4kg/pair) Orange 701-010 002002057",
    "price": "Rp229.500",
    "city": "Tangerang"
  },
  {
    "img": "https://images.tokopedia.net/img/cache/200-square/VqbcmM/2021/12/11/b2fa2f37-9847-4c3c-80f0-25b2ac46252a.jpg",
    "name": "Triumph Dumbell set 30KG Barbel set Dumbel alat olahraga rumahan",
    "price": "Rp399.900",
    "city": "HangOn Official Store"
  },
  {
    "img": "https://images.tokopedia.net/img/cache/200-square/product-1/2018/2/22/254742775/254742775_6e7a766a-90d2-4474-bb13-7790a6be3013_700_700.jpg",
    "name": "Push Up Power / alat olahraga fitnes tangan pushup bar handle portabel",
    "price": "Rp39.900",
    "city": "Jakarta Utara"
  },
  {
    "img": "https://images.tokopedia.net/img/cache/200-square/product-1/2019/10/29/5493320/5493320_b9f76c90-0a86-479a-a069-4934d91a84e5_700_700",
    "name": "Expander Tube Medium Tension KETTLER - ORIGINAL",
    "price": "Rp103.500",
    "city": "Fantastic Pedia"
  },
  {
    "img": "https://images.tokopedia.net/img/cache/200-square/VqbcmM/2021/1/8/978d7b3a-e96b-4321-a748-fc704f8f0f07.jpg",
    "name": "Dumbell Neoprene 8KG/PAIR / Barbel (2 x 4KG) KETTLER - ORIGINAL",
    "price": "Rp413.500",
    "city": "Depok"
  },
  {
    "img": "https://images.tokopedia.net/img/cache/200-square/VqbcmM/2022/11/9/379e0607-be0e-4df2-a06b-50461f4471d5.jpg",
    "name": "Adjustable Dumbbell Vosgo Fitness 24 Kg dan 48 Kg Alat Angkat Beban",
    "price": "Rp1.800.000",
    "city": "lbagstore"
  },
  {
    "img": "https://images.tokopedia.net/img/cache/200-square/VqbcmM/2021/2/2/092afbe6-f3f4-4c89-8b20-fa9275b1338f.jpg",
    "name": "Set Tali Olahraga Pintu Serbaguna/ 11 Set Alat Fitness Dan Gym Dirumah",
    "price": "Rp60.000",
    "city": "Surabaya"
  },
  {
    "img": "https://images.tokopedia.net/img/cache/200-square/VqbcmM/2022/10/27/7f0624cf-e15b-43fe-a7a3-24c40fc618d1.png",
    "name": "BG SPORT Papan Sit Up alat olahraga MODEL SU-200 BLACK",
    "price": "Rp950.000",
    "city": "Speeds Official Store"
  },
  {
    "img": "https://images.tokopedia.net/img/cache/200-square/VqbcmM/2022/5/9/b1eaafe2-8ad9-4740-b73d-88bce870d8bf.jpg",
    "name": "TREADMILL MANUAL CURVE LIFE SPORTS ALAT FITNESS ORIGINAL QUALITY",
    "price": "Rp21.990.000",
    "city": "Kab. Tangerang"
  },
  {
    "img": "https://images.tokopedia.net/img/cache/200-square/VqbcmM/2022/5/20/c1e44b01-43ad-4d2c-b5c8-7e7edc895147.jpg",
    "name": "HandGrip Set 5in1 Alat Olahraga Tangan Hand Grip Jari Finger Strength",
    "price": "Rp99.000",
    "city": "Stay Story"
  },
  {
    "img": "https://images.tokopedia.net/img/ta/headline-tooltip-compressed-200.png?ect=4g",
    "name": "Treadmill Elektrik Vosgo Vienna",
    "price": "Rp 3.880.000",
    "city": "Tangerang"
  },
  {
    "img": "https://images.tokopedia.net/img/cache/200-square/VqbcmM/2022/11/15/5f5b7a45-e3fa-406f-a794-0e575a09aeb7.jpg",
    "name": "Treadmill Elektrik Oregon Vosgo",
    "price": "Rp 8.900.000",
    "city": "BGSPORT"
  },
  {
    "img": "https://images.tokopedia.net/img/cache/200-square/VqbcmM/2022/11/2/60e59fec-5035-4454-9926-3c0937a231d4.jpg",
    "name": "Treadmill Elektrik Vosgo Napoli-Pro",
    "price": "Rp 7.500.000",
    "city": "Tangerang Selatan"
  },
  {
    "img": "https://images.tokopedia.net/img/cache/200-square/VqbcmM/2022/11/15/baedf4e9-1222-41b9-91c9-872336510da8.jpg",
    "name": "BG SPORT Papan Sit Up alat olahraga MODEL SU-200 BLACK",
    "price": "Rp950.000",
    "city": "BITNASTORE FITNESS"
  },
  {
    "img": "https://images.tokopedia.net/img/cache/200-square/VqbcmM/2022/10/27/7f0624cf-e15b-43fe-a7a3-24c40fc618d1.png",
    "name": "TREADMILL MANUAL CURVE LIFE SPORTS ALAT FITNESS ORIGINAL QUALITY",
    "price": "Rp21.990.000",
    "city": "Jakarta Barat"
  },
  {
    "img": "https://images.tokopedia.net/img/cache/200-square/VqbcmM/2022/5/9/b1eaafe2-8ad9-4740-b73d-88bce870d8bf.jpg",
    "name": "HandGrip Set 5in1 Alat Olahraga Tangan Hand Grip Jari Finger Strength",
    "price": "Rp99.000",
    "city": "CV Bakat Sehat Official"
  },
  {
    "img": "https://images.tokopedia.net/img/cache/200-square/VqbcmM/2022/5/20/c1e44b01-43ad-4d2c-b5c8-7e7edc895147.jpg",
    "name": "HOME GYM 1 SISI + BEBAN TUMPUK LS-618 ALAT FITNESS ORIGINAL QUALITY",
    "price": "Rp5.390.000",
    "city": "Tangerang Selatan"
  },
  {
    "img": "https://images.tokopedia.net/img/cache/200-square/VqbcmM/2022/5/11/a27f113d-1c2d-4c1b-a340-4b3a0ca900c7.jpg",
    "name": "OYO NOVA GYM (new version portable gyms)",
    "price": "Rp3.599.000",
    "city": "BITNASTORE FITNESS"
  },
  {
    "img": "https://images.tokopedia.net/img/cache/200-square/VqbcmM/2022/10/16/23e8f419-df48-4b50-83de-d6a37a45bbdb.jpg",
    "name": "Dumbel 1KG Barbel Olahraga 1KG Dumbell Pasir 1 KG Alat Latihan Beban",
    "price": "Rp25.000",
    "city": "Surabaya"
  },
  {
    "img": "https://images.tokopedia.net/img/cache/200-square/VqbcmM/2021/8/1/b552919b-cec5-48bd-aea0-370892db29e5.jpg",
    "name": "Barbel Dumbel Plastik Hercules 3kg",
    "price": "Rp27.000",
    "city": "ratu sayang shop"
  },
  {
    "img": "https://images.tokopedia.net/img/cache/200-square/hDjmkQ/2022/2/4/2229ef06-60e1-41bb-ad37-7f3ad46be451.jpg",
    "name": "ALAT OLAHRAGA FITNESS Sit up / push up / alat pengecil perut",
    "price": "Rp30.000",
    "city": "Jakarta Barat"
  },
  {
    "img": "https://images.tokopedia.net/img/cache/200-square/VqbcmM/2021/12/15/2154b4ba-04c9-40d5-bc59-03938aae9432.png",
    "name": "Sit Up Stand DOUBLE HOLDER alat bantu olahraga penahan kaki 022-4",
    "price": "Rp53.400",
    "city": "Maju Mundur 88"
  },
  {
    "img": "https://images.tokopedia.net/img/cache/200-square/VqbcmM/2021/12/31/9a18e048-d699-46f8-b222-b14d7f2e5c0c.jpg",
    "name": "Dumbell Barbel Vinyl cewek matrass yoga ball yoga mat gym 012-3/2pc",
    "price": "Rp133.000",
    "city": "Jakarta Barat"
  },
  {
    "img": "https://images.tokopedia.net/img/cache/200-square/VqbcmM/2021/5/12/269a32a0-1ba9-4204-ad15-4092bf74a7ca.jpg",
    "name": "STICK BARBEL 150 cm STICK DUMBELL BAR EZ Curl Bar Fitness 014-21",
    "price": "Rp247.500",
    "city": "Sportivo Indonesia"
  },
  {
    "img": "https://images.tokopedia.net/img/cache/200-square/product-1/2020/7/8/38440256/38440256_8a5c6eeb-cbb7-4605-b989-d76244b747b0_1200_1200",
    "name": "Techdoo Alat Bantu Sit Up Alat Olahraga Penahan Kaki Sit Up OPK02",
    "price": "Rp39.000",
    "city": "Jakarta Barat"
  },
  {
    "img": "https://images.tokopedia.net/img/cache/200-square/product-1/2020/8/15/24692000/24692000_ec8cdfce-f520-454a-93f5-e67961d864a4_800_800",
    "name": "Home Gym 1 Sisi Twen HG550 / Homegym / Alat Fitness",
    "price": "Rp3.300.000",
    "city": "OOGI"
  },
  {
    "img": "https://images.tokopedia.net/img/cache/200-square/VqbcmM/2022/11/3/9642b6e0-ff3a-463e-b994-7b3fd5ee065f.jpg",
    "name": "Comeback Foam Handgrip latihan tangan, alat olahraga, latihan lengan",
    "price": "Rp19.000",
    "city": "Jakarta Barat"
  },
  {
    "img": "https://images.tokopedia.net/img/cache/200-square/VqbcmM/2022/2/11/77c42ffa-1cd6-49c0-a988-3d456f3a63da.jpg",
    "name": "Hand Grip / Handgrip alat olahraga tangan fitness 10kg-40kg",
    "price": "Rp14.969",
    "city": "Hebohstore"
  },
  {
    "img": "https://images.tokopedia.net/img/cache/200-square/VqbcmM/2022/7/19/f63aa8de-13b3-4f51-bd01-bdb88d4a5f4b.jpg",
    "name": "Svarga Weighted Steel Plates - Plat Rompi Beban - Pemberat Kaki Tangan",
    "price": "Rp65.000",
    "city": "Surabaya"
  },
  {
    "img": "https://images.tokopedia.net/img/cache/200-square/VqbcmM/2021/12/3/578c2166-3b95-442c-baea-42b874d230e7.jpg",
    "name": "Svarga Adjustable Barbell 6 in 1 - Dumbbell - Kettlebell - Barbel 10kg",
    "price": "Rp690.000",
    "city": "Speeds Official Store"
  },
  {
    "img": "https://images.tokopedia.net/img/cache/200-square/VqbcmM/2022/1/4/dc539491-b120-4b0a-90ca-6a0f6cb3cd2a.jpg",
    "name": "Alat Fitness Treadmill Elektrik iReborn Arrezo (Auto Incline)",
    "price": "Rp6.280.000",
    "city": "Surabaya"
  },
  {
    "img": "https://images.tokopedia.net/img/cache/200-square/VqbcmM/2022/10/14/84b22e84-7538-4ce3-8294-d77b6dd3eeeb.jpg",
    "name": "HIT POWER SQUAT ORIGINAL Lejel seperti Excider - ALAT OLAHRAGA FITNES",
    "price": "Rp1.350.000",
    "city": "Speeds Official Store"
  },
  {
    "img": "https://images.tokopedia.net/img/cache/200-square/VqbcmM/2021/1/10/a07fd987-820f-4fca-a6c2-2858961851f1.jpg",
    "name": "Latex Flexiband KETTLER 0.65mm - ORIGINAL",
    "price": "Rp76.500",
    "city": "Tangerang"
  },
  {
    "img": "https://images.tokopedia.net/img/cache/200-square/product-1/2020/7/22/9807189/9807189_c6b856d5-8871-4370-b509-1837abfbfd64_1000_1000",
    "name": "Barbel Dumbbell Plastic Stamina 2 kg - Hijau",
    "price": "Rp24.000",
    "city": "Techdoo"
  },
  {
    "img": "https://images.tokopedia.net/img/cache/200-square/VqbcmM/2021/10/14/1ceb46dd-ad41-4f9b-915f-997e951a5db9.jpg",
    "name": "Lompat Tali Skipping Jump Rope Alat Olahraga Skiping Hitung Otomatis",
    "price": "Rp7.499",
    "city": "Kab. Tangerang"
  },
  {
    "img": "https://images.tokopedia.net/img/cache/200-square/VqbcmM/2021/4/13/b929a2cf-c8cf-4bb8-9deb-64235e06a2c9.jpg",
    "name": "Dumbbell Plastik Stamina 1 kg",
    "price": "Rp12.000",
    "city": "TOKINDO ID"
  },
  {
    "img": "https://images.tokopedia.net/img/cache/200-square/VqbcmM/2022/4/21/86f01371-fbaa-46ac-85fc-755599b18605.png",
    "name": "Alat Fitness Treadmill Elektrik iReborn Aires i8",
    "price": "Rp5.180.000",
    "city": "Jakarta Utara"
  },
  {
    "img": "https://images.tokopedia.net/img/cache/200-square/VqbcmM/2022/11/1/16cc46ff-b5fb-4795-8699-e28dafeb296e.jpg",
    "name": "Alat Fitness Treadmill iReborn Florence",
    "price": "Rp10.500.000",
    "city": "Comeback Official Shop"
  },
  {
    "img": "https://images.tokopedia.net/img/cache/200-square/VqbcmM/2022/11/16/d8ccd4b5-86fb-447b-923c-3a7b4994f792.jpg",
    "name": "Skipping Rope Alat Olahraga Tali Fitness Aksesories Counter Hitung Gym",
    "price": "Rp6.500",
    "city": "Tangerang Selatan"
  },
  {
    "img": "https://images.tokopedia.net/img/cache/200-square/VqbcmM/2021/9/8/8de09ebe-f94d-41b3-8157-989bbd28e75d.jpg",
    "name": "Dumbell Set 20KG Alat Fitness Olahraga",
    "price": "Rp288.000",
    "city": "RG AKSESORIS HP"
  },
  {
    "img": "https://images.tokopedia.net/img/cache/200-square/VqbcmM/2021/11/15/8be7bd6f-6556-4e93-810a-4cdae5bd0965.jpg",
    "name": "Barbel Dumbel Plastik Hercules 1kg",
    "price": "Rp9.000",
    "city": "Tangerang Selatan"
  },
  {
    "img": "https://images.tokopedia.net/img/cache/200-square/product-1/2020/8/7/7405430/7405430_dbc16e0f-36fb-4555-a7ac-fd60fc515bab.jpg",
    "name": "Barbel Dumbel Plastik Hercules 10kg",
    "price": "Rp90.000",
    "city": "SVARGA YOGA"
  },
  {
    "img": "https://images.tokopedia.net/img/cache/200-square/hDjmkQ/2022/2/4/4da2c965-cf9b-4445-947b-efc2470901b7.jpg",
    "name": "Alat Fitness Treadmill iReborn I Turin M5",
    "price": "Rp8.300.000",
    "city": "Tangerang Selatan"
  },
  {
    "img": "https://images.tokopedia.net/img/cache/200-square/VqbcmM/2022/11/16/15417894-d579-4575-9f79-9486e91432fd.jpg",
    "name": "Falcon Alat Fitnes Hidrolik untuk Lengan",
    "price": "Rp390.000",
    "city": "SVARGA YOGA"
  },
  {
    "img": "https://images.tokopedia.net/img/cache/200-square/VqbcmM/2022/11/3/de2e6c1a-1b4f-4884-ad36-ddd715afec4e.jpg",
    "name": "Revoflex Xtreme Alat Olahraga push up & sit up perut jadi ramping",
    "price": "Rp54.978",
    "city": "Jakarta Utara"
  },
  {
    "img": "https://images.tokopedia.net/img/cache/200-square/product-1/2016/11/10/227179/227179_5209f79a-039f-457e-a3de-47bcbee9c18f.jpg",
    "name": "JACO Multi Toner (Alat Sit Up Multifungsi)",
    "price": "Rp1.098.000",
    "city": "iReborn"
  },
  {
    "img": "https://images.tokopedia.net/img/cache/200-square/VqbcmM/2021/11/24/5c048b6c-fc98-4904-9aff-89167de82ceb.jpg",
    "name": "Dumbell Barbel Set Max 20kg Tiang Angkat Besi Dumbbel Dumble 014-10",
    "price": "Rp652.500",
    "city": "Bogor"
  },
  {
    "img": "https://images.tokopedia.net/img/cache/200-square/VqbcmM/2021/5/11/e16d2010-3300-4283-9df0-8d405e26581b.jpg",
    "name": "Triumph Dumbell set 40KG Barbel set Dumbel alat olahraga rumahan",
    "price": "Rp699.900",
    "city": "shauilleshop"
  },
  {
    "img": "https://images.tokopedia.net/img/cache/200-square/VqbcmM/2022/11/12/e79d1d6d-97dd-45a4-94fa-05a6f3bc0b57.jpg",
    "name": "Svarga Adjustable Barbell 6 in 1 - Dumbbell - Kettlebell - Barbel 40kg",
    "price": "Rp690.000",
    "city": "Jakarta Utara"
  },
  {
    "img": "https://images.tokopedia.net/img/cache/200-square/VqbcmM/2022/1/4/13fe6c91-9d95-45ef-8ffe-97064e625c89.jpg",
    "name": "Aolikes 111 Anti Slip Glove Gym Fitness - Sarung Tangan - Black",
    "price": "Rp49.000",
    "city": "DNA Sport & Music"
  },
  {
    "img": "https://images.tokopedia.net/img/cache/200-square/product-1/2019/3/30/3702175/3702175_6969a8e1-d478-4475-955d-51395ee1491e_700_700.jpg",
    "name": "Barbel Dumbel Plastik Hercules 2kg",
    "price": "Rp18.000",
    "city": "Jakarta Utara"
  },
  {
    "img": "https://images.tokopedia.net/img/cache/200-square/hDjmkQ/2022/2/4/14f0205f-f0ae-466f-aa8a-462949eecca6.jpg",
    "name": "Handgrip Hand Grip Alat Olahraga Pelatih Otot Tangan Carpal Arm Muscle",
    "price": "Rp11.800",
    "city": "Stamina Infinite"
  },
  {
    "img": "https://images.tokopedia.net/img/cache/200-square/VqbcmM/2021/3/8/5d292889-366d-4d6a-afbe-2867906d2fce.jpg",
    "name": "Onetwofit Multi fungsi sit up peralatan bangku dumbbell alat olahraga",
    "price": "Rp839.000",
    "city": "Surabaya"
  },
  {
    "img": "https://images.tokopedia.net/img/cache/200-square/VqbcmM/2022/6/30/df07aa86-e7d0-45b4-a47f-74b3425b3f96.jpg",
    "name": "hand grips/ alat olahraga tangan",
    "price": "Rp17.000",
    "city": "Garment Needs"
  },
  {
    "img": "https://images.tokopedia.net/img/cache/200-square/product-1/2017/2/18/916521/916521_3d1956e3-3471-4421-801b-05e4c75546ff.jpg",
    "name": "Alat Fitness Treadmill Elektrik iReborn Torino",
    "price": "Rp8.900.000",
    "city": "Jakarta Utara"
  },
  {
    "img": "https://images.tokopedia.net/img/cache/200-square/VqbcmM/2022/9/28/35871a79-ac9c-4b96-9bda-fabb8f7aa84b.jpg",
    "name": "Svarga Adjustable Dumbbell - 2,5 KG - Dumbell Barbel Barbell",
    "price": "Rp299.000",
    "city": "Stamina Infinite"
  },
  {
    "img": "https://images.tokopedia.net/img/cache/200-square/VqbcmM/2022/1/26/5147f670-57d8-4395-933e-f17ae68e9b1f.jpg",
    "name": "SFIDN FITS 6in1 Multifunction Dumbell Kettlebell Barbel Set 20kg",
    "price": "Rp448.200",
    "city": "Jakarta Utara"
  },
  {
    "img": "https://images.tokopedia.net/img/cache/200-square/VqbcmM/2022/1/26/e81f61c3-f8a9-40b9-adff-bf551edc3ac6.jpg",
    "name": "Kettler Solid Threaded Dumbell Bar - ORIGINAL / Batang Solid Dumbel",
    "price": "Rp170.500",
    "city": "iReborn"
  },
  {
    "img": "https://images.tokopedia.net/img/cache/200-square/VqbcmM/2021/1/7/d3da8531-26c9-43ac-8c40-58f426bebe70.jpg",
    "name": "Set Tali Olahraga Pintu Serbaguna/ 11 set alat Fitness dan Gym Dirumah",
    "price": "Rp60.000",
    "city": "Jakarta Utara"
  },
  {
    "img": "https://images.tokopedia.net/img/cache/200-square/VqbcmM/2020/12/10/614e0769-885d-4b1c-8293-14c7103337bc.jpg",
    "name": "Barbell / Dumbell set 20kg alat olahraga gym rumahan. barbel dumbel",
    "price": "Rp280.000",
    "city": "iReborn"
  },
  {
    "img": "https://images.tokopedia.net/img/cache/200-square/VqbcmM/2022/3/15/c71462de-d00d-452a-97b2-d6b301687377.jpg",
    "name": "Dip Bar Lebert Equalizer Push Up Bar Portable Alat Fitness 042-31",
    "price": "Rp617.500",
    "city": "Semarang"
  },
  {
    "img": "https://images.tokopedia.net/img/cache/200-square/VqbcmM/2021/10/17/89044a86-7527-42f8-bdf8-7fbdb955a133.jpg",
    "name": "Stamina Dumbbell Plastic 1 Kg - Orange",
    "price": "Rp12.000",
    "city": "Grosir Supermart"
  },
  {
    "img": "https://images.tokopedia.net/img/cache/200-square/VqbcmM/2022/4/21/af4372f8-deca-40cf-a9af-74886072b190.png",
    "name": "Dumbell Neoprene 10KG/PAIR / Barbel (2 x 5KG) KETTLER - ORIGINAL",
    "price": "Rp512.500",
    "city": "Kab. Tangerang"
  },
  {
    "img": "https://images.tokopedia.net/img/cache/200-square/VqbcmM/2021/1/8/2efb7cd4-a81c-461e-918f-0bdd3e7146b8.jpg",
    "name": "Barbel Dumbel Plastik Hercules 4kg",
    "price": "Rp36.000",
    "city": "clickmall"
  },
  {
    "img": "https://images.tokopedia.net/img/cache/200-square/hDjmkQ/2022/2/4/8a758cbf-1c19-469e-a17c-3b3902263928.jpg",
    "name": "Adjustable Handgrip Hand Grip Alat Fitness Olahraga Otot Tangan 5-60kg",
    "price": "Rp45.000",
    "city": "Jakarta Barat"
  },
  {
    "img": "https://images.tokopedia.net/img/cache/200-square/VqbcmM/2021/7/7/3ffa26f3-1fba-40cf-a8d9-0504430af2b8.png",
    "name": "HandGrip Set 5in1 Alat Olahraga Tangan Hand Grip Jari Finger Strength",
    "price": "Rp99.000",
    "city": "Sportivo Indonesia"
  },
  {
    "img": "https://images.tokopedia.net/img/cache/200-square/VqbcmM/2022/5/20/c1e44b01-43ad-4d2c-b5c8-7e7edc895147.jpg",
    "name": "Svarga Weighted Vest | 10kg | Rompi Beban | Weight Vest Bending",
    "price": "Rp740.000",
    "city": "Kab. Sidoarjo"
  },
  {
    "img": "https://images.tokopedia.net/img/cache/200-square/VqbcmM/2021/4/12/671cafbf-11a3-4f6c-873a-cd71c7cdb50d.jpg",
    "name": "Alat Fitness Home Gym 1sisi 150LBS iReborn Metro",
    "price": "Rp5.960.000",
    "city": "Sportivo Indonesia"
  },
  {
    "img": "https://images.tokopedia.net/img/cache/200-square/VqbcmM/2022/11/1/b0a47277-2b1c-426c-9546-ae82b582c546.jpg",
    "name": "Stick Rowing pulldown bar, pull Down, Alat fitness, alat olahraga",
    "price": "Rp135.000",
    "city": "Jakarta Utara"
  },
  {
    "img": "https://images.tokopedia.net/img/cache/200-square/VqbcmM/2021/9/1/7d5b2d2c-87a5-4ffe-8ef9-c90dc6863536.jpg",
    "name": "Push Up Stand Bar Alat Bantu Push Up Olahraga Fitness Equipment Pegang",
    "price": "Rp31.500",
    "city": "iReborn"
  },
  {
    "img": "https://images.tokopedia.net/img/cache/200-square/VqbcmM/2022/10/6/4e08bf25-b72d-45ae-8107-0e943a398dae.jpg",
    "name": "handgrip hand grip alat fitnes frasser plastik",
    "price": "Rp6.000",
    "city": "Jakarta Utara"
  },
  {
    "img": "https://images.tokopedia.net/img/cache/200-square/VqbcmM/2021/12/5/dee5c101-ceb7-4b78-92a0-2719934f53b4.jpg",
    "name": "sabuk angkat beban KETTLER WEIGHT LIFTING BELT ORIGINAL",
    "price": "Rp179.000",
    "city": "KoolPop Official"
  },
  {
    "img": "https://images.tokopedia.net/img/cache/200-square/VqbcmM/2022/10/17/ea29c3b4-02c7-410d-b5a0-2e629f541505.png",
    "name": "Hand Grip Handgrip alat olahraga tangan fitness 10kg-40kg gym Sport Ok",
    "price": "Rp18.450",
    "city": "Jakarta Barat"
  },
  {
    "img": "https://images.tokopedia.net/img/cache/200-square/VqbcmM/2021/6/15/2fb09697-1e8d-43cb-b5e2-aebedb4c6662.jpg",
    "name": "Dumbel Barbel Set Max 15kg Dumbell Dumble Alat Fitness speeds LX 014-3",
    "price": "Rp450.000",
    "city": "Green Cosme"
  },
  {
    "img": "https://images.tokopedia.net/img/cache/200-square/VqbcmM/2021/5/12/e8e41dd1-b9a9-46b3-abc9-f52c202eaf68.jpg",
    "name": "BERWYN BARBEL NEOPRENE DUMBBELL 2KG PURPLE HOME GYM",
    "price": "Rp99.900",
    "city": "Jakarta Utara"
  },
  {
    "img": "https://images.tokopedia.net/img/cache/200-square/VqbcmM/2021/9/29/f4214319-c74b-457d-82ba-b6293a2fb6c6.jpg",
    "name": "Svarga Adjustable Barbell 6 in 1 - Dumbbell - Kettlebell - Barbel 30kg",
    "price": "Rp690.000",
    "city": "JACO TVS"
  },
  {
    "img": "https://images.tokopedia.net/img/cache/200-square/VqbcmM/2022/1/4/b669487b-2717-4795-9fb4-92c01fef61d6.jpg",
    "name": "Bicep Triceps Arm Blaster Isolator Bar Barbell Dumbell Dumble 014-34",
    "price": "Rp180.000",
    "city": "Surabaya"
  },
  {
    "img": "https://images.tokopedia.net/img/cache/200-square/product-1/2020/7/9/38440256/38440256_8121bc0b-e636-49ce-a22a-6f746249df35_1200_1200",
    "name": "Kettler Weight Rope - Blue 405-000 002002094",
    "price": "Rp99.500",
    "city": "Speeds Official Store"
  },
  {
    "img": "https://images.tokopedia.net/img/cache/200-square/VqbcmM/2021/1/5/fc87ff5f-b71d-4ae9-b52a-4b9a4f9b76ff.jpg",
    "name": "POWER RACK MULTY GYM USA FITNESS COMERCIAL CLASS ORIGINAL QUALITY",
    "price": "Rp37.350.000",
    "city": "Surabaya"
  },
  {
    "img": "https://images.tokopedia.net/img/cache/200-square/VqbcmM/2022/9/27/9d35b92e-34d3-467b-8bc5-14e3ffb699fc.jpg",
    "name": "Treadmill Manual MultiFungsi Treadmill 7 in 1-Alat Fitness Termurah JF",
    "price": "Rp633.600",
    "city": "Triumph International"
  },
  {
    "img": "https://images.tokopedia.net/img/cache/200-square/VqbcmM/2022/8/23/5b417f0e-a5bf-4b1c-a4c5-cf3e35a7b5a2.jpg",
    "name": "HOME GYM 4 SISI + LEGPRESS GYM/FITNESS LIFE-SPORTS ORIGINAL QUALITY",
    "price": "Rp12.375.000",
    "city": "Tangerang Selatan"
  },
  {
    "img": "https://images.tokopedia.net/img/cache/200-square/VqbcmM/2022/5/15/eae7fe06-0c55-437e-ac6a-b7a7fafd5937.jpg",
    "name": "Sit Up Stand Double Holder Alat Bantu Olahraga Penahan Kaki 022-4",
    "price": "Rp61.750",
    "city": "SVARGA YOGA"
  },
  {
    "img": "https://images.tokopedia.net/img/cache/200-square/VqbcmM/2022/8/15/4a23a610-a57b-4bd7-b16d-41436f981d1c.jpg",
    "name": "SMITH MACHINE MULTIFUNGSI DAN CABLE CROSSOVER BEBAN PLATE",
    "price": "Rp20.000.000",
    "city": "Jakarta Utara"
  }
]